{
   "name" : "Swiftlint",
  "rules" : [
    {
    "description" : "Warning",
       "selector" : "([^/]+\\.swift):(\\d+:\\d+): (warning)?(error)?.*\\(([^\\()]+)\\)",
          "style" : { },
         "styles" : [
                    { "color": "blue" },
                    { "weight": "bold", "color": "blue" },
                    { "color": "yellow" },
                    { "color": "red" },
                    { "color": "blue" }
                    ]
    },{
    "description" : "Summary",
       "selector" : "Done linting! Found (0 violations)?(\\d+ violations)?, (0 serious)?(\\d+ serious)? in \\d+ files",
          "style" : { "color": "green" },
         "styles" : [
                    { "weight": "bold", "color": "green" },
                    { "weight": "bold", "color": "red" },
                    { "weight": "bold", "color": "green" },
                    { "weight": "bold", "color": "red" }
                    ]
    },{
    "description" : "Prefix Linting",
       "selector" : "(^Linting) '",
          "style" : { "attributes": "hide" }
    }
  ]
}
