{
   "name" : "Test rules",
  "rules" : [
    {
    "description" : "Test ANSIColor",
       "selector" : "red",
          "style" : { "color": "red" }
    },
    {
    "description" : "Test ANSIBackground",
       "selector" : "night",
          "style" : { "background": "black" }
    },
    {
    "description" : "Test ANSIWeight",
       "selector" : "bold",
          "style" : { "weight": "bold" },
          "styles": [
                      { "color": "red" },
                      { "color": "green" },
                      { "color": "blue" }
                    ]
    },
    {
    "description" : "Test ANSIUnderline",
       "selector" : "single underline",
          "style" : { "underline": "single" }
    },
    {
    "description" : "Test ANSISGRAttributes",
       "selector" : "slow blink",
          "style" : { "attributes": "slow blink" }
    }
  ]
}